<?xml version="1.0" encoding="UTF-8" standalone="no"?>
<svg
   xmlns:dc="http://purl.org/dc/elements/1.1/"
   xmlns:cc="http://creativecommons.org/ns#"
   xmlns:rdf="http://www.w3.org/1999/02/22-rdf-syntax-ns#"
   xmlns:svg="http://www.w3.org/2000/svg"
   xmlns="http://www.w3.org/2000/svg"
   xmlns:sodipodi="http://sodipodi.sourceforge.net/DTD/sodipodi-0.dtd"
   xmlns:inkscape="http://www.inkscape.org/namespaces/inkscape"
   version="1.1"
   viewBox="0 -64 1024 1024"
   id="svg6"
   sodipodi:docname="logo.svg"
   inkscape:version="0.92.3 (2405546, 2018-03-11)">
  <metadata
     id="metadata12">
    <rdf:RDF>
      <cc:Work
         rdf:about="">
        <dc:format>image/svg+xml</dc:format>
        <dc:type
           rdf:resource="http://purl.org/dc/dcmitype/StillImage" />
      </cc:Work>
    </rdf:RDF>
  </metadata>
  <defs
     id="defs10" />
  <sodipodi:namedview
     pagecolor="#ffffff"
     bordercolor="#666666"
     borderopacity="1"
     objecttolerance="10"
     gridtolerance="10"
     guidetolerance="10"
     inkscape:pageopacity="0"
     inkscape:pageshadow="2"
     inkscape:window-width="1920"
     inkscape:window-height="1016"
     id="namedview8"
     showgrid="false"
     inkscape:zoom="0.32593203"
     inkscape:cx="-324.81287"
     inkscape:cy="518.55637"
     inkscape:window-x="0"
     inkscape:window-y="27"
     inkscape:window-maximized="1"
     inkscape:current-layer="svg6" />
  <g
     transform="matrix(1,0,0,-1,0,896)"
     id="g4"
     style="stroke:#ff0000;stroke-opacity:1">
    <path
       d="m 128,-64 h 768 q 26,0 45,19 19,19 19,45 v 896 q 0,26 -19,45 -19,19 -45,19 H 128 Q 102,960 83,941 64,922 64,896 V 0 q 0,-26 19,-45 19,-19 45,-19 z m 0,960 H 896 V 0 H 128 Z M 736,768 H 480 q -13,0 -22.5,-9.5 Q 448,749 448,736 448,723 457.5,713.5 467,704 480,704 h 256 q 13,0 22.5,9.5 9.5,9.5 9.5,22.5 0,13 -9.5,22.5 Q 749,768 736,768 Z m 0,-192 H 288 q -13,0 -22.5,-9.5 Q 256,557 256,544 256,531 265.5,521.5 275,512 288,512 h 448 q 13,0 22.5,9.5 9.5,9.5 9.5,22.5 0,13 -9.5,22.5 Q 749,576 736,576 Z m 0,-192 H 288 q -13,0 -22.5,-9.5 Q 256,365 256,352 256,339 265.5,329.5 275,320 288,320 h 448 q 13,0 22.5,9.5 9.5,9.5 9.5,22.5 0,13 -9.5,22.5 Q 749,384 736,384 Z m 0,-192 H 288 q -13,0 -22.5,-9.5 Q 256,173 256,160 256,147 265.5,137.5 275,128 288,128 h 448 q 13,0 22.5,9.5 9.5,9.5 9.5,22.5 0,13 -9.5,22.5 Q 749,192 736,192 Z"
       id="path2"
       inkscape:connector-curvature="0"
       style="fill:#ffffff;stroke:#000000;stroke-opacity:1;fill-opacity:1;stroke-width:2;stroke-miterlimit:4;stroke-dasharray:none" />
  </g>
</svg>
